{
    "openapi": "3.0.0",
    "info": {
        "title": "Multipage API Documenation",
        "contact": {
            "email": "amalakar@bravvura.in"
        },
        "version": "1.0"
    },
    "paths": {
        "/api/auth/guest": {
            "post": {
                "tags": [
                    "Auth"
                ],
                "summary": "Request Guest token.",
                "parameters": [
                    {
                        "name": "platform",
                        "in": "path",
                        "description": "Platform.",
                        "required": true,
                        "schema": {
                            "type": "string"
                        }
                    },
                    {
                        "name": "device_id",
                        "in": "path",
                        "description": "Device id (only for mobile).",
                        "required": false,
                        "schema": {
                            "type": "string"
                        }
                    },
                    {
                        "name": "device_token",
                        "in": "path",
                        "description": "Device token (only for mobile).",
                        "required": false,
                        "schema": {
                            "type": "string"
                        }
                    }
                ],
                "responses": {
                    "200": {
                        "description": "Success"
                    },
                    "406": {
                        "description": "Not acceptable"
                    },
                    "500": {
                        "description": "Internal server error"
                    },
                    "default": {
                        "description": "An \"unexpected\" error"
                    }
                }
            }
        },
        "/api/user": {
            "get": {
                "tags": [
                    "User"
                ],
                "summary": "Get all user details.",
                "parameters": [
                    {
                        "name": "Authorization",
                        "in": "header",
                        "description": "Bearer <token>.",
                        "required": true,
                        "schema": {
                            "type": "string"
                        }
                    }
                ],
                "responses": {
                    "200": {
                        "description": "Success"
                    },
                    "406": {
                        "description": "Not acceptable"
                    },
                    "500": {
                        "description": "Internal server error"
                    },
                    "default": {
                        "description": "An \"unexpected\" error"
                    }
                }
            }
        }
    }
}